[
  {
    "id": "0",
    "title": "Introduction To React",
    "content": "Lorem ipsum dolor sit amet, consectetur adipiscing elit. Nam semper eros sit amet arcu maximus, a ultricies est rhoncus. Aliquam nisi sem, euismod at orci non, tincidunt scelerisque nunc. Sed porttitor pulvinar euismod. Vestibulum id enim orci. Sed enim orci, faucibus quis ultrices vel, posuere vitae massa. Fusce dignissim dictum ex quis efficitur. In vitae lacus hendrerit, vulputate dui eget, suscipit sem. Praesent erat orci, finibus vitae ipsum et, pretium gravida lectus. Morbi id urna rutrum, porttitor libero in, semper nunc. Ut mi lacus, consectetur eget nisl rutrum, pretium imperdiet velit. Pellentesque habitant morbi tristique senectus et netus et malesuada fames ac turpis egestas. Ut fermentum diam et suscipit semper. Vivamus viverra elementum nulla, nec iaculis metus dictum a. In in est ligula. Vivamus vitae aliquam tortor, vel egestas eros. Quisque suscipit ante sed malesuada bibendum. Nunc sodales pellentesque lectus, a pharetra lectus. Morbi molestie mi eu aliquet congue. Nam aliquet nulla quis sollicitudin vestibulum. Nunc tincidunt tellus eget metus semper, in bibendum magna dapibus. Fusce pharetra pulvinar condimentum. In laoreet turpis id feugiat pretium. Curabitur eget sollicitudin mi. Donec feugiat ante vel nibh posuere iaculis. Integer volutpat ante nec aliquam interdum. Phasellus nec aliquet massa. Etiam id tincidunt est, et dignissim ex. Nullam porttitor ante et nulla vestibulum euismod. Morbi commodo erat non felis molestie feugiat. Morbi sed metus ligula. Interdum et malesuada fames ac ante ipsum primis in faucibus. Maecenas nec ex eleifend, tempus massa ac, aliquam lectus. Lorem ipsum dolor sit amet, consectetur adipiscing elit. Etiam luctus, augue vitae tempor venenatis, odio mauris sollicitudin urna, eu iaculis est erat quis felis. Nulla facilisi. Maecenas elementum mollis mauris hendrerit vestibulum. Proin in ex eget dolor feugiat semper. Praesent ultricies, odio sed hendrerit vulputate, tellus magna faucibus erat, ac sollicitudin mi mauris non augue. Integer pretium nisi vel augue varius, ut aliquet purus consequat. Praesent sollicitudin consequat fermentum. Vestibulum ante ipsum primis in faucibus orci luctus et ultrices posuere cubilia curae; Vivamus at neque dolor. Nam elementum rutrum justo, ut maximus odio imperdiet eget. Donec tincidunt sollicitudin neque at viverra. Nulla pulvinar laoreet velit, sit amet laoreet tortor tristique nec. Nullam et elementum turpis, ut posuere arcu. In hac habitasse platea dictumst. Integer non odio nec quam venenatis mattis. Sed eu dolor orci. Pellentesque sollicitudin ultrices sem at ullamcorper. Suspendisse ut elit ut dui pellentesque condimentum. Aliquam erat volutpat.",
    "createdBy": "John Doe"
  },
  {
    "id": "1",
    "title": "Web Dev Bootcamp",
    "content": "Lorem ipsum dolor sit amet, consectetur adipiscing elit. Nam semper eros sit amet arcu maximus, a ultricies est rhoncus. Aliquam nisi sem, euismod at orci non, tincidunt scelerisque nunc. Sed porttitor pulvinar euismod. Vestibulum id enim orci. Sed enim orci, faucibus quis ultrices vel, posuere vitae massa. Fusce dignissim dictum ex quis efficitur. In vitae lacus hendrerit, vulputate dui eget, suscipit sem. Praesent erat orci, finibus vitae ipsum et, pretium gravida lectus. Morbi id urna rutrum, porttitor libero in, semper nunc. Ut mi lacus, consectetur eget nisl rutrum, pretium imperdiet velit. Pellentesque habitant morbi tristique senectus et netus et malesuada fames ac turpis egestas. Ut fermentum diam et suscipit semper. Vivamus viverra elementum nulla, nec iaculis metus dictum a. In in est ligula. Vivamus vitae aliquam tortor, vel egestas eros. Quisque suscipit ante sed malesuada bibendum. Nunc sodales pellentesque lectus, a pharetra lectus. Morbi molestie mi eu aliquet congue. Nam aliquet nulla quis sollicitudin vestibulum. Nunc tincidunt tellus eget metus semper, in bibendum magna dapibus. Fusce pharetra pulvinar condimentum. In laoreet turpis id feugiat pretium. Curabitur eget sollicitudin mi. Donec feugiat ante vel nibh posuere iaculis. Integer volutpat ante nec aliquam interdum. Phasellus nec aliquet massa. Etiam id tincidunt est, et dignissim ex. Nullam porttitor ante et nulla vestibulum euismod. Morbi commodo erat non felis molestie feugiat. Morbi sed metus ligula. Interdum et malesuada fames ac ante ipsum primis in faucibus. Maecenas nec ex eleifend, tempus massa ac, aliquam lectus. Lorem ipsum dolor sit amet, consectetur adipiscing elit. Etiam luctus, augue vitae tempor venenatis, odio mauris sollicitudin urna, eu iaculis est erat quis felis. Nulla facilisi. Maecenas elementum mollis mauris hendrerit vestibulum. Proin in ex eget dolor feugiat semper. Praesent ultricies, odio sed hendrerit vulputate, tellus magna faucibus erat, ac sollicitudin mi mauris non augue. Integer pretium nisi vel augue varius, ut aliquet purus consequat. Praesent sollicitudin consequat fermentum. Vestibulum ante ipsum primis in faucibus orci luctus et ultrices posuere cubilia curae; Vivamus at neque dolor. Nam elementum rutrum justo, ut maximus odio imperdiet eget. Donec tincidunt sollicitudin neque at viverra. Nulla pulvinar laoreet velit, sit amet laoreet tortor tristique nec. Nullam et elementum turpis, ut posuere arcu. In hac habitasse platea dictumst. Integer non odio nec quam venenatis mattis. Sed eu dolor orci. Pellentesque sollicitudin ultrices sem at ullamcorper. Suspendisse ut elit ut dui pellentesque condimentum. Aliquam erat volutpat.",
    "createdBy": "John Doe"
  },
  {
    "id": "2",
    "title": "Blockchain For Dummies",
    "content": "Lorem ipsum dolor sit amet, consectetur adipiscing elit. Nam semper eros sit amet arcu maximus, a ultricies est rhoncus. Aliquam nisi sem, euismod at orci non, tincidunt scelerisque nunc. Sed porttitor pulvinar euismod. Vestibulum id enim orci. Sed enim orci, faucibus quis ultrices vel, posuere vitae massa. Fusce dignissim dictum ex quis efficitur. In vitae lacus hendrerit, vulputate dui eget, suscipit sem. Praesent erat orci, finibus vitae ipsum et, pretium gravida lectus. Morbi id urna rutrum, porttitor libero in, semper nunc. Ut mi lacus, consectetur eget nisl rutrum, pretium imperdiet velit. Pellentesque habitant morbi tristique senectus et netus et malesuada fames ac turpis egestas. Ut fermentum diam et suscipit semper. Vivamus viverra elementum nulla, nec iaculis metus dictum a. In in est ligula. Vivamus vitae aliquam tortor, vel egestas eros. Quisque suscipit ante sed malesuada bibendum. Nunc sodales pellentesque lectus, a pharetra lectus. Morbi molestie mi eu aliquet congue. Nam aliquet nulla quis sollicitudin vestibulum. Nunc tincidunt tellus eget metus semper, in bibendum magna dapibus. Fusce pharetra pulvinar condimentum. In laoreet turpis id feugiat pretium. Curabitur eget sollicitudin mi. Donec feugiat ante vel nibh posuere iaculis. Integer volutpat ante nec aliquam interdum. Phasellus nec aliquet massa. Etiam id tincidunt est, et dignissim ex. Nullam porttitor ante et nulla vestibulum euismod. Morbi commodo erat non felis molestie feugiat. Morbi sed metus ligula. Interdum et malesuada fames ac ante ipsum primis in faucibus. Maecenas nec ex eleifend, tempus massa ac, aliquam lectus. Lorem ipsum dolor sit amet, consectetur adipiscing elit. Etiam luctus, augue vitae tempor venenatis, odio mauris sollicitudin urna, eu iaculis est erat quis felis. Nulla facilisi. Maecenas elementum mollis mauris hendrerit vestibulum. Proin in ex eget dolor feugiat semper. Praesent ultricies, odio sed hendrerit vulputate, tellus magna faucibus erat, ac sollicitudin mi mauris non augue. Integer pretium nisi vel augue varius, ut aliquet purus consequat. Praesent sollicitudin consequat fermentum. Vestibulum ante ipsum primis in faucibus orci luctus et ultrices posuere cubilia curae; Vivamus at neque dolor. Nam elementum rutrum justo, ut maximus odio imperdiet eget. Donec tincidunt sollicitudin neque at viverra. Nulla pulvinar laoreet velit, sit amet laoreet tortor tristique nec. Nullam et elementum turpis, ut posuere arcu. In hac habitasse platea dictumst. Integer non odio nec quam venenatis mattis. Sed eu dolor orci. Pellentesque sollicitudin ultrices sem at ullamcorper. Suspendisse ut elit ut dui pellentesque condimentum. Aliquam erat volutpat.",
    "createdBy": "John Doe"
  },
  {
    "id": "3",
    "title": "Startup 101",
    "content": "Lorem ipsum dolor sit amet, consectetur adipiscing elit. Nam semper eros sit amet arcu maximus, a ultricies est rhoncus. Aliquam nisi sem, euismod at orci non, tincidunt scelerisque nunc. Sed porttitor pulvinar euismod. Vestibulum id enim orci. Sed enim orci, faucibus quis ultrices vel, posuere vitae massa. Fusce dignissim dictum ex quis efficitur. In vitae lacus hendrerit, vulputate dui eget, suscipit sem. Praesent erat orci, finibus vitae ipsum et, pretium gravida lectus. Morbi id urna rutrum, porttitor libero in, semper nunc. Ut mi lacus, consectetur eget nisl rutrum, pretium imperdiet velit. Pellentesque habitant morbi tristique senectus et netus et malesuada fames ac turpis egestas. Ut fermentum diam et suscipit semper. Vivamus viverra elementum nulla, nec iaculis metus dictum a. In in est ligula. Vivamus vitae aliquam tortor, vel egestas eros. Quisque suscipit ante sed malesuada bibendum. Nunc sodales pellentesque lectus, a pharetra lectus. Morbi molestie mi eu aliquet congue. Nam aliquet nulla quis sollicitudin vestibulum. Nunc tincidunt tellus eget metus semper, in bibendum magna dapibus. Fusce pharetra pulvinar condimentum. In laoreet turpis id feugiat pretium. Curabitur eget sollicitudin mi. Donec feugiat ante vel nibh posuere iaculis. Integer volutpat ante nec aliquam interdum. Phasellus nec aliquet massa. Etiam id tincidunt est, et dignissim ex. Nullam porttitor ante et nulla vestibulum euismod. Morbi commodo erat non felis molestie feugiat. Morbi sed metus ligula. Interdum et malesuada fames ac ante ipsum primis in faucibus. Maecenas nec ex eleifend, tempus massa ac, aliquam lectus. Lorem ipsum dolor sit amet, consectetur adipiscing elit. Etiam luctus, augue vitae tempor venenatis, odio mauris sollicitudin urna, eu iaculis est erat quis felis. Nulla facilisi. Maecenas elementum mollis mauris hendrerit vestibulum. Proin in ex eget dolor feugiat semper. Praesent ultricies, odio sed hendrerit vulputate, tellus magna faucibus erat, ac sollicitudin mi mauris non augue. Integer pretium nisi vel augue varius, ut aliquet purus consequat. Praesent sollicitudin consequat fermentum. Vestibulum ante ipsum primis in faucibus orci luctus et ultrices posuere cubilia curae; Vivamus at neque dolor. Nam elementum rutrum justo, ut maximus odio imperdiet eget. Donec tincidunt sollicitudin neque at viverra. Nulla pulvinar laoreet velit, sit amet laoreet tortor tristique nec. Nullam et elementum turpis, ut posuere arcu. In hac habitasse platea dictumst. Integer non odio nec quam venenatis mattis. Sed eu dolor orci. Pellentesque sollicitudin ultrices sem at ullamcorper. Suspendisse ut elit ut dui pellentesque condimentum. Aliquam erat volutpat.",
    "createdBy": "Jonathan Joseph"
  },
  {
    "id": "4",
    "title": "Interesting Title",
    "content": "Lorem ipsum dolor sit amet, consectetur adipiscing elit. Nam semper eros sit amet arcu maximus, a ultricies est rhoncus. Aliquam nisi sem, euismod at orci non, tincidunt scelerisque nunc. Sed porttitor pulvinar euismod. Vestibulum id enim orci. Sed enim orci, faucibus quis ultrices vel, posuere vitae massa. Fusce dignissim dictum ex quis efficitur. In vitae lacus hendrerit, vulputate dui eget, suscipit sem. Praesent erat orci, finibus vitae ipsum et, pretium gravida lectus. Morbi id urna rutrum, porttitor libero in, semper nunc. Ut mi lacus, consectetur eget nisl rutrum, pretium imperdiet velit. Pellentesque habitant morbi tristique senectus et netus et malesuada fames ac turpis egestas. Ut fermentum diam et suscipit semper. Vivamus viverra elementum nulla, nec iaculis metus dictum a. In in est ligula. Vivamus vitae aliquam tortor, vel egestas eros. Quisque suscipit ante sed malesuada bibendum. Nunc sodales pellentesque lectus, a pharetra lectus. Morbi molestie mi eu aliquet congue. Nam aliquet nulla quis sollicitudin vestibulum. Nunc tincidunt tellus eget metus semper, in bibendum magna dapibus. Fusce pharetra pulvinar condimentum. In laoreet turpis id feugiat pretium. Curabitur eget sollicitudin mi. Donec feugiat ante vel nibh posuere iaculis. Integer volutpat ante nec aliquam interdum. Phasellus nec aliquet massa. Etiam id tincidunt est, et dignissim ex. Nullam porttitor ante et nulla vestibulum euismod. Morbi commodo erat non felis molestie feugiat. Morbi sed metus ligula. Interdum et malesuada fames ac ante ipsum primis in faucibus. Maecenas nec ex eleifend, tempus massa ac, aliquam lectus. Lorem ipsum dolor sit amet, consectetur adipiscing elit. Etiam luctus, augue vitae tempor venenatis, odio mauris sollicitudin urna, eu iaculis est erat quis felis. Nulla facilisi. Maecenas elementum mollis mauris hendrerit vestibulum. Proin in ex eget dolor feugiat semper. Praesent ultricies, odio sed hendrerit vulputate, tellus magna faucibus erat, ac sollicitudin mi mauris non augue. Integer pretium nisi vel augue varius, ut aliquet purus consequat. Praesent sollicitudin consequat fermentum. Vestibulum ante ipsum primis in faucibus orci luctus et ultrices posuere cubilia curae; Vivamus at neque dolor. Nam elementum rutrum justo, ut maximus odio imperdiet eget. Donec tincidunt sollicitudin neque at viverra. Nulla pulvinar laoreet velit, sit amet laoreet tortor tristique nec. Nullam et elementum turpis, ut posuere arcu. In hac habitasse platea dictumst. Integer non odio nec quam venenatis mattis. Sed eu dolor orci. Pellentesque sollicitudin ultrices sem at ullamcorper. Suspendisse ut elit ut dui pellentesque condimentum. Aliquam erat volutpat.",
    "createdBy": "John Doe"
  },
  {
    "id": "5",
    "title": "Computer Fundamentals",
    "content": "Lorem ipsum dolor sit amet, consectetur adipiscing elit. Nam semper eros sit amet arcu maximus, a ultricies est rhoncus. Aliquam nisi sem, euismod at orci non, tincidunt scelerisque nunc. Sed porttitor pulvinar euismod. Vestibulum id enim orci. Sed enim orci, faucibus quis ultrices vel, posuere vitae massa. Fusce dignissim dictum ex quis efficitur. In vitae lacus hendrerit, vulputate dui eget, suscipit sem. Praesent erat orci, finibus vitae ipsum et, pretium gravida lectus. Morbi id urna rutrum, porttitor libero in, semper nunc. Ut mi lacus, consectetur eget nisl rutrum, pretium imperdiet velit. Pellentesque habitant morbi tristique senectus et netus et malesuada fames ac turpis egestas. Ut fermentum diam et suscipit semper. Vivamus viverra elementum nulla, nec iaculis metus dictum a. In in est ligula. Vivamus vitae aliquam tortor, vel egestas eros. Quisque suscipit ante sed malesuada bibendum. Nunc sodales pellentesque lectus, a pharetra lectus. Morbi molestie mi eu aliquet congue. Nam aliquet nulla quis sollicitudin vestibulum. Nunc tincidunt tellus eget metus semper, in bibendum magna dapibus. Fusce pharetra pulvinar condimentum. In laoreet turpis id feugiat pretium. Curabitur eget sollicitudin mi. Donec feugiat ante vel nibh posuere iaculis. Integer volutpat ante nec aliquam interdum. Phasellus nec aliquet massa. Etiam id tincidunt est, et dignissim ex. Nullam porttitor ante et nulla vestibulum euismod. Morbi commodo erat non felis molestie feugiat. Morbi sed metus ligula. Interdum et malesuada fames ac ante ipsum primis in faucibus. Maecenas nec ex eleifend, tempus massa ac, aliquam lectus. Lorem ipsum dolor sit amet, consectetur adipiscing elit. Etiam luctus, augue vitae tempor venenatis, odio mauris sollicitudin urna, eu iaculis est erat quis felis. Nulla facilisi. Maecenas elementum mollis mauris hendrerit vestibulum. Proin in ex eget dolor feugiat semper. Praesent ultricies, odio sed hendrerit vulputate, tellus magna faucibus erat, ac sollicitudin mi mauris non augue. Integer pretium nisi vel augue varius, ut aliquet purus consequat. Praesent sollicitudin consequat fermentum. Vestibulum ante ipsum primis in faucibus orci luctus et ultrices posuere cubilia curae; Vivamus at neque dolor. Nam elementum rutrum justo, ut maximus odio imperdiet eget. Donec tincidunt sollicitudin neque at viverra. Nulla pulvinar laoreet velit, sit amet laoreet tortor tristique nec. Nullam et elementum turpis, ut posuere arcu. In hac habitasse platea dictumst. Integer non odio nec quam venenatis mattis. Sed eu dolor orci. Pellentesque sollicitudin ultrices sem at ullamcorper. Suspendisse ut elit ut dui pellentesque condimentum. Aliquam erat volutpat.",
    "createdBy": "John Doe"
  }
]
